{
  "api": "Person",
  "code": "P",
  "title": "Persoon",
  "description": "Persoonsgegevens",
  "version": "0.0",
  "updated": "2016-11-16 13:33:42",
  "list": [
    {
      "api": "Identity",
      "code": "ID",
      "title": "Identiteit",
      "description": "Persoonlijke gegevens",
      "version": "0.0",
      "updated": "2016-11-16 13:33:42",
      "role": "LDO",
      "userName" : "kevdeckx@gmail.com",
      "password" : "123456",
      "firstName": "Joseph",
      "lastName": "Inghelbrecht",
      "phoneWork": "0486 78 87 23",
      "phoneHome": "0486 78 87 23",
      "mobile": "0486 78 87 23",
      "email": "jef.inghelbrecht@telenet.be",
      "street": "Braziliëstraat 38",
      "postalCode": "2000",
      "city": "Antwerpen",
      "function": "docent"
    },
    {
      "api": "Identity",
      "code": "ID",
      "title": "Identiteit",
      "description": "Persoonlijke gegevens",
      "version": "0.0",
      "updated": "2016-11-16 13:33:42",
      "role": "STAF",
      "userName" : "guy",
      "password" : "123456",
      "firstName": "Guy",
      "lastName": "Linten",
      "phoneWork": "0486 78 87 23",
      "phoneHome": "0486 78 87 23",
      "mobile": "0486 78 87 23",
      "email": "guy.linten@telenet.be",
      "street": "Ergensstraat 2",
      "postalCode": "1000",
      "city": "Brussel",
      "function": "docent"
    },
    {
      "api": "Identity",
      "code": "ID",
      "title": "Identiteit",
      "description": "Persoonlijke gegevens",
      "version": "0.0",
      "updated": "2016-11-16 13:33:42",
      "role": "DV",
      "userName" : "dvjing",
      "password" : "123456",
      "firstName": "Joseph",
      "lastName": "Inghelbrecht",
      "phoneWork": "0486 78 87 23",
      "phoneHome": "0486 78 87 23",
      "mobile": "0486 78 87 23",
      "email": "jef.inghelbrecht@telenet.be",
      "street": "Braziliëstraat 38",
      "postalCode": "2000",
      "city": "Antwerpen",
      "function": "Docent/Directe verantwoordelijke"
    },
    {
      "api": "Identity",
      "code": "ID",
      "title": "Identiteit",
      "description": "Persoonlijke gegevens",
      "version": "0.0",
      "updated": "2016-11-16 13:33:42",
      "role": "SE",
      "userName" : "sejing",
      "password" : "123456",
      "firstName": "Joseph",
      "lastName": "Inghelbrecht",
      "phoneWork": "0486 78 87 23",
      "phoneHome": "0486 78 87 23",
      "mobile": "0486 78 87 23",
      "email": "jef.inghelbrecht@telenet.be",
      "street": "Braziliëstraat 38",
      "postalCode": "2000",
      "city": "Antwerpen",
      "function": "Secretariaat"
    },
    {
      "api": "Identity",
      "code": "ID",
      "title": "Identiteit",
      "description": "Persoonlijke gegevens",
      "version": "0.0",
      "updated": "2016-11-16 13:33:42",
      "role": "DIR",
      "userName" : "dirjing",
      "password" : "123456",
      "firstName": "Joseph",
      "lastName": "Inghelbrecht",
      "phoneWork": "0486 78 87 23",
      "phoneHome": "0486 78 87 23",
      "mobile": "0486 78 87 23",
      "email": "jef.inghelbrecht@telenet.be",
      "street": "Braziliëstraat 38",
      "postalCode": "2000",
      "city": "Antwerpen",
      "function": "Directeur"
    }
  ]
}